                                     | Core 0     | Core 1     | Core 2     | Core 3    
  Instructions                       |      11667 |   79342505 |   79351688 |   79359283
  Cycles                             |   94550729 |   57411846 |   54873851 |   94550322
  Time (ns)                          |   94550729 |   21583401 |   20629268 |   94550322
Branch predictor stats               |            |            |            |           
  num correct                        |       1314 |    3672097 |    3696024 |    3679133
  num incorrect                      |        533 |     127973 |     103866 |     120395
  misprediction rate                 |     28.86% |      3.37% |      2.73% |      3.17%
  mpki                               |      45.68 |       1.61 |       1.31 |       1.52
TLB Summary                          |            |            |            |           
  I-TLB                              |            |            |            |           
    num accesses                     |       1438 |    8924733 |    8925451 |    8924053
    num misses                       |         32 |         24 |         24 |         18
    miss rate                        |      2.23% |      0.00% |      0.00% |      0.00%
    mpki                             |       2.74 |       0.00 |       0.00 |       0.00
  D-TLB                              |            |            |            |           
    num accesses                     |       4836 |   22952111 |   22954217 |   22954156
    num misses                       |        215 |    1418994 |    1392793 |    1186925
    miss rate                        |      4.45% |      6.18% |      6.07% |      5.17%
    mpki                             |      18.43 |      17.88 |      17.55 |      14.96
  L2 TLB                             |            |            |            |           
    num accesses                     |        247 |    1419018 |    1392817 |    1186943
    num misses                       |         81 |       1685 |       8488 |       1764
    miss rate                        |     32.79% |      0.12% |      0.61% |      0.15%
    mpki                             |       6.94 |       0.02 |       0.11 |       0.02
Cache Summary                        |            |            |            |           
  Cache L1-I                         |            |            |            |           
    num cache accesses               |       1438 |    8924733 |    8925451 |    8924053
    num cache misses                 |        177 |        130 |        130 |       4484
    miss rate                        |     12.31% |      0.00% |      0.00% |      0.05%
    mpki                             |      15.17 |       0.00 |       0.00 |       0.06
  Cache L1-D                         |            |            |            |           
    num cache accesses               |       4876 |   22952118 |   22954223 |   22954159
    num cache misses                 |        295 |      75383 |      79300 |     129663
    miss rate                        |      6.05% |      0.33% |      0.35% |      0.56%
    mpki                             |      25.28 |       0.95 |       1.00 |       1.63
  Cache L2                           |            |            |            |           
    num cache accesses               |        476 |      75514 |      79432 |     134147
    num cache misses                 |        456 |       1221 |       1233 |      68764
    miss rate                        |     95.80% |      1.62% |      1.55% |     51.26%
    mpki                             |      39.08 |       0.02 |       0.02 |       0.87
  Cache L3                           |            |            |            |           
    num cache accesses               |        461 |       1223 |       1235 |      68764
    num cache misses                 |        160 |        310 |        186 |        119
    miss rate                        |     34.71% |     25.35% |     15.06% |      0.17%
    mpki                             |      13.71 |       0.00 |       0.00 |       0.00
DRAM summary                         |            |            |            |           
  num dram accesses                  |        775 |          0 |          0 |          0
  average dram access latency (ns)   |      59.62 |        inf |        inf |        inf
  average dram queueing delay        |       6.19 |       0.00 |       0.00 |       0.00
  average dram bandwidth utilization |      0.00% |      0.00% |      0.00% |      0.00%
