\relax 
\citation{sniper}
\citation{ABS}
\citation{Li}
\@writefile{toc}{\contentsline {section}{\numberline {1}Introduction}{1}}
\newlabel{sec:intro}{{1}{1}}
\@writefile{toc}{\contentsline {section}{\numberline {2}Heterogeneous Scheduling Schemes}{1}}
\newlabel{sec:scheduling}{{2}{1}}
\@writefile{toc}{\contentsline {subsection}{\numberline {2.1}Age Based Scheduling}{1}}
\citation{ABS}
\citation{ABS}
\citation{PIE}
\citation{BIS}
\citation{BIS}
\citation{BIS}
\@writefile{lof}{\contentsline {figure}{\numberline {1}{\ignorespaces Fork-join execution model \cite  {ABS}\relax }}{2}}
\providecommand*\caption@xref[2]{\@setref\relax\@undefined{#1}}
\newlabel{fig:forkjoin}{{1}{2}}
\@writefile{toc}{\contentsline {subsection}{\numberline {2.2}Performance Impact Estimation}{2}}
\@writefile{toc}{\contentsline {subsection}{\numberline {2.3}Bottleneck Identification and Scheduling}{2}}
\citation{Chen09}
\citation{Chen09}
\citation{Chen09}
\citation{sniper}
\@writefile{lof}{\contentsline {figure}{\numberline {2}{\ignorespaces Hardware structure for BIS \cite  {BIS}\relax }}{3}}
\newlabel{fig:BIS}{{2}{3}}
\@writefile{toc}{\contentsline {subsection}{\numberline {2.4}Weighted Euclidean Distance }{3}}
\@writefile{lof}{\contentsline {figure}{\numberline {3}{\ignorespaces Framework for multidimensional program-core matching \cite  {Chen09}\relax }}{3}}
\newlabel{fig:pcmap}{{3}{3}}
\@writefile{toc}{\contentsline {section}{\numberline {3}Sniper}{3}}
\newlabel{sec:sniper}{{3}{3}}
\@writefile{lot}{\contentsline {table}{\numberline {1}{\ignorespaces Age Based Sniper Implementation\relax }}{3}}
\newlabel{tab:abs}{{1}{3}}
\@writefile{toc}{\contentsline {section}{\numberline {4}Impelementation}{4}}
\newlabel{sec:implementation}{{4}{4}}
\@writefile{lot}{\contentsline {table}{\numberline {2}{\ignorespaces Configuration 1\relax }}{4}}
\newlabel{tab:cfg1}{{2}{4}}
\@writefile{lof}{\contentsline {figure}{\numberline {4}{\ignorespaces Nomalized Execution Time (configuration 1)\relax }}{4}}
\newlabel{fig:exe_time}{{4}{4}}
\@writefile{lof}{\contentsline {figure}{\numberline {5}{\ignorespaces Nomalized Execution Time (configuration 2)\relax }}{5}}
\newlabel{fig:exe_time}{{5}{5}}
\@writefile{lot}{\contentsline {table}{\numberline {3}{\ignorespaces Configuration 2\relax }}{5}}
\newlabel{tab:cfg2}{{3}{5}}
\@writefile{toc}{\contentsline {section}{\numberline {5}Evaluation}{5}}
\newlabel{sec:evaluation}{{5}{5}}
\bibstyle{IEEEtranS}
\bibdata{references}
\bibcite{sniper}{1}
\bibcite{Chen09}{2}
\bibcite{PIE}{3}
\bibcite{BIS}{4}
\bibcite{ABS}{5}
\bibcite{Li}{6}
\@writefile{toc}{\contentsline {section}{\numberline {6}Conclusion}{6}}
