                                     | Core 0     | Core 1     | Core 2     | Core 3    
  Instructions                       |   12789156 |  110502450 |  109009821 |   35556251
  Cycles                             |  121227101 |  322466529 |  322460653 |  121226644
  Time (ns)                          |  121227101 |  121228019 |  121225810 |  121226645
Branch predictor stats               |            |            |            |           
  num correct                        |     631817 |    5413586 |    5371409 |    1740139
  num incorrect                      |      78193 |     723849 |     689966 |     233357
  misprediction rate                 |     11.01% |     11.79% |     11.38% |     11.82%
  mpki                               |       6.11 |       6.55 |       6.33 |       6.56
TLB Summary                          |            |            |            |           
  I-TLB                              |            |            |            |           
    num accesses                     |    1410528 |   12207947 |   12058672 |    3927994
    num misses                       |         87 |         36 |         32 |         57
    miss rate                        |      0.01% |      0.00% |      0.00% |      0.00%
    mpki                             |       0.01 |       0.00 |       0.00 |       0.00
  D-TLB                              |            |            |            |           
    num accesses                     |    3944623 |   34112325 |   33696615 |   10984493
    num misses                       |     609057 |    5293468 |    5222706 |    1704119
    miss rate                        |     15.44% |     15.52% |     15.50% |     15.51%
    mpki                             |      47.62 |      47.90 |      47.91 |      47.93
  L2 TLB                             |            |            |            |           
    num accesses                     |     609144 |    5293504 |    5222738 |    1704176
    num misses                       |     232161 |    2018809 |    1988687 |     650772
    miss rate                        |     38.11% |     38.14% |     38.08% |     38.19%
    mpki                             |      18.15 |      18.27 |      18.24 |      18.30
Cache Summary                        |            |            |            |           
  Cache L1-I                         |            |            |            |           
    num cache accesses               |    1410528 |   12207947 |   12058672 |    3927994
    num cache misses                 |      14548 |      21465 |      20613 |      40529
    miss rate                        |      1.03% |      0.18% |      0.17% |      1.03%
    mpki                             |       1.14 |       0.19 |       0.19 |       1.14
  Cache L1-D                         |            |            |            |           
    num cache accesses               |    4189124 |   36214987 |   35780144 |   11661690
    num cache misses                 |     284571 |    2388736 |    2353294 |     793469
    miss rate                        |      6.79% |      6.60% |      6.58% |      6.80%
    mpki                             |      22.25 |      21.62 |      21.59 |      22.32
  Cache L2                           |            |            |            |           
    num cache accesses               |     299507 |    2410466 |    2374701 |     834277
    num cache misses                 |     291069 |    2040416 |    2013256 |     812738
    miss rate                        |     97.18% |     84.65% |     84.78% |     97.42%
    mpki                             |      22.76 |      18.46 |      18.47 |      22.86
  Cache L3                           |            |            |            |           
    num cache accesses               |     291459 |    2040681 |    2014050 |     813017
    num cache misses                 |      77887 |     607841 |     605032 |     198277
    miss rate                        |     26.72% |     29.79% |     30.04% |     24.39%
    mpki                             |       6.09 |       5.50 |       5.55 |       5.58
DRAM summary                         |            |            |            |           
  num dram accesses                  |    2162230 |          0 |          0 |          0
  average dram access latency (ns)   |      55.32 |        inf |        inf |        inf
  average dram queueing delay        |       1.89 |       0.00 |       0.00 |       0.00
  average dram bandwidth utilization |     15.00% |      0.00% |      0.00% |      0.00%
